{
	"debugLogging": {
		"users": ["*", "epstoffen", "ep00404", "ep00234", "Kristoffer_1467831244", "isak_1467879106", "kristt_1467831491"],
		"uploadUrl": "http://104.155.62.122/testcache/sblogg/uploads"
	},
	"ipad-rpi-samba": {
		"username": "syncuser",
		"password": "test",
		"workgroup": "workgroup",
		"path": "smb://192.168.10.1/mpcrp",
		"filetype-suffixes": ".prd|.txt",
		"old-oppdrag-maintenance-lookback-days": 7,
		"new-oppdrag-lookback-hours": 24,
		"wifiname": "sbloggwifi"
	},
	"ipad-rpi-samba-epstoffen": {
		"username": "",
		"password": "",
		"workgroup": "workgroup",
		"path": "smb://192.168.10.1/mpcrp",
		"filetype-suffixes": ".prd|.txt",
		"old-oppdrag-maintenance-lookback-days": 7,
		"new-oppdrag-lookback-hours": 24,
		"wifiname": "sbloggwifi"
	},
	"ipad-rpi-samba-epnav": {
		"username": "shareuser",
		"password": "pajasipyjamas",
		"workgroup": "workgroup",
		"path": "smb://192.168.10.1/mpcrp",
		"filetype-suffixes": ".prd|.txt",
		"old-oppdrag-maintenance-lookback-days": 7,
		"new-oppdrag-lookback-hours": 24,
		"wifiname": "sbloggwifi"
	},
	"socks-proxy": {
		"proxyhost": "127.0.0.1",
		"proxyport": 9050,
		"connecthost": "192.168.10.1",
		"connectport": 22
	}
}